<?xml version="1.0" encoding="UTF-8"?>
<svg width="20px" height="20px" viewBox="0 0 20 20" version="1.1" xmlns="http://www.w3.org/2000/svg" xmlns:xlink="http://www.w3.org/1999/xlink">
    <!-- Generator: Sketch 63.1 (92452) - https://sketch.com -->
    <title>Bookmark</title>
    <desc>Created with Sketch.</desc>
    <g id="Bookmark" stroke="none" stroke-width="1" fill="none" fill-rule="evenodd">
        <path d="M14.0000239,18 C13.7359578,18.0002104 13.4825278,17.8959601 13.2950408,17.7099997 L10.0001197,14.4099998 L6.73019804,17.6699997 C6.44701569,17.9726892 6.00645419,18.0692922 5.62260486,17.9128643 C5.23875553,17.7564365 4.99120053,17.3794093 5.00023947,16.9649997 L5.00023947,3 C5.00023947,2.44771524 5.447944,2 6.00021552,2 L14.0000239,2 C14.5522955,2 15,2.44771524 15,3 L15,17 C15,17.5522844 14.5522955,18 14.0000239,18 Z M14.0000239,17 L14.0000239,17 L14.0000239,2.99999998 L6.00021552,2.99999998 L6.00021552,16.9649997 L10.0001197,13 L14.0000239,17 Z" id="Shape" fill="#000000" fill-rule="nonzero"></path>
    </g>
</svg>