<?xml version="1.0" encoding="UTF-8"?>
<svg width="20px" height="20px" viewBox="0 0 20 20" version="1.1" xmlns="http://www.w3.org/2000/svg" xmlns:xlink="http://www.w3.org/1999/xlink">
    <!-- Generator: Sketch 63.1 (92452) - https://sketch.com -->
    <title>Left Arrow</title>
    <desc>Created with Sketch.</desc>
    <g id="Left-Arrow" stroke="none" stroke-width="1" fill="none" fill-rule="evenodd">
        <path d="M16.8079782,9.02130326 L10.5320411,3 L4.25610404,9.02130326 C4.05387999,9.16981819 3.96003456,9.41842827 4.01592701,9.65756684 C4.07181946,9.89670542 4.26718289,10.0824451 4.51591735,10.1329272 C4.76465182,10.1834093 5.02106721,10.0893609 5.17215697,9.89223058 L9.88235819,5.38721805 L9.88235819,17.3734336 C9.88235819,17.7194767 10.1732311,18 10.5320411,18 C10.8908511,18 11.181724,17.7194767 11.181724,17.3734336 L11.181724,5.38721805 L15.8919253,9.89223058 C16.1466803,10.1361909 16.5582656,10.1347883 16.8112266,9.88909773 C17.0641876,9.64340715 17.0627332,9.24646664 16.8079782,9.00250627 L16.8079782,9.02130326 Z" id="Shape-Copy-2" fill="#000000" fill-rule="nonzero" transform="translate(10.500000, 10.500000) scale(-1, 1) rotate(-270.000000) translate(-10.500000, -10.500000) "></path>
    </g>
</svg>