<?xml version="1.0" encoding="UTF-8"?>
<svg width="20px" height="20px" viewBox="0 0 20 20" version="1.1" xmlns="http://www.w3.org/2000/svg" xmlns:xlink="http://www.w3.org/1999/xlink">
    <!-- Generator: Sketch 63.1 (92452) - https://sketch.com -->
    <title>Logout</title>
    <desc>Created with Sketch.</desc>
    <g id="Logout" stroke="none" stroke-width="1" fill="none" fill-rule="evenodd">
        <path d="M11.4344828,3 C12.0134295,3 12.4827586,3.46050711 12.4827586,4.02857143 L12.4827586,4.02857143 L12.4827586,9.06857143 L11.4344828,9.06857143 L11.4344828,4.02857143 L3.04827586,4.02857143 L3.04827586,16.3714286 L12.4827586,16.3714286 C12.4827586,16.9394929 12.0134295,17.4 11.4344828,17.4 L11.4344828,17.4 L3.04827586,17.4 C2.46932909,17.4 2,16.9394929 2,16.3714286 L2,16.3714286 L2,4.02857143 C2,3.46050711 2.46932909,3 3.04827586,3 L3.04827586,3 Z M13.4274841,9.85668177 C13.6210844,9.66672055 13.9310774,9.65497193 14.1390345,9.82971429 L14.1390345,9.82971429 L17.2,12.8074286 L14.1390345,15.7902857 C14.0109405,15.9370506 13.8098138,16.0009793 13.6183459,15.9557881 C13.426878,15.9105969 13.277384,15.7639129 13.2313271,15.576044 C13.1852702,15.3881752 13.2504235,15.1908291 13.4,15.0651429 L13.4,15.0651429 L15.1715862,13.2857143 L7.57158621,13.2857143 C7.28211282,13.2857143 7.04744828,13.0554607 7.04744828,12.7714286 C7.04744828,12.4873964 7.28211282,12.2571429 7.57158621,12.2571429 L7.57158621,12.2571429 L15.1715862,12.2571429 L13.4,10.5548571 C13.2219101,10.350809 13.2338838,10.046643 13.4274841,9.85668177 Z" id="Shape" fill="#FFFFFF" fill-rule="nonzero"></path>
    </g>
</svg>