<?xml version="1.0" encoding="UTF-8"?>
<svg width="101px" height="117px" viewBox="0 0 101 117" version="1.1" xmlns="http://www.w3.org/2000/svg" xmlns:xlink="http://www.w3.org/1999/xlink">
    <!-- Generator: Sketch 63.1 (92452) - https://sketch.com -->
    <title>Signup_Image</title>
    <desc>Created with Sketch.</desc>
    <g id="Signup_Image" stroke="none" stroke-width="1" fill="none" fill-rule="evenodd">
        <g id="sign-in" fill-rule="nonzero">
            <path d="M77.0264064,72.5266944 L69.8738688,72.5174784 L57.0797568,72.5008896 C57.0917376,72.2953728 57.079296,72.0916992 57.0797568,71.8829568 L57.0797568,51.7248 L34.9880832,51.7248 L34.9880832,71.8553088 C34.9876224,72.0640512 34.9765632,72.2677248 34.9880832,72.4732416 L22.166784,72.4566528 L15.0142464,72.4474368 C7.287552,72.4372992 1.0156032,78.69312 1.0059264,86.4198144 L0.9690624,115.2 L90.9623808,115.2 L90.999256,86.5350144 C91.0089216,78.80832 84.7531008,72.536832 77.0264064,72.5266944 L77.0264064,72.5266944 Z" id="Path" fill="#F4EFED"></path>
            <path d="M34.9880832,51.7248 L57.0797568,51.7248 L57.0797568,72.963072 C57.0797568,79.0636032 52.1344512,84.0089088 46.03392,84.0089088 C39.9333888,84.0089088 34.9880832,79.0636032 34.9880832,72.963072 L34.9880832,51.7248 Z" id="Path" fill="#FF9F70"></path>
            <path d="M46.03392,84.9309696 C39.4348032,84.9309696 34.0664832,79.5626496 34.0664832,72.9635328 L34.0664832,51.7252608 C34.0664832,51.2165376 34.47936,50.8036608 34.9880832,50.8036608 L57.0797568,50.8036608 C57.58848,50.8036608 58.0013568,51.2165376 58.0013568,51.7252608 L58.0013568,72.9635328 C58.0013568,79.5621888 52.6330368,84.9309696 46.03392,84.9309696 Z M35.9096832,52.6464 L35.9096832,72.963072 C35.9096832,78.545664 40.451328,83.0873088 46.03392,83.0873088 C51.616512,83.0873088 56.1581568,78.545664 56.1581568,72.963072 L56.1581568,52.6464 L35.9096832,52.6464 Z" id="Shape" fill="#690589"></path>
            <path d="M77.0264064,72.5266944 L72.1184256,72.5202432 C79.84512,72.52992 86.1009408,78.8018688 86.0908032,86.5285632 L86.0539392,115.199539 L90.96192,115.199539 L90.9987963,86.5345536 C91.0089216,78.80832 84.7531008,72.536832 77.0264064,72.5266944 Z" id="Path" fill="#D6D1CF"></path>
            <path d="M15.0137856,72.4474245 L19.9217664,72.453888 C12.195072,72.4442112 5.9231232,78.6995712 5.9134464,86.4262656 L5.8765824,115.2 L0.9690624,115.2 L1.0059264,86.4198144 C1.0156032,78.69312 7.2870912,72.4372992 15.0137856,72.4474245 L15.0137856,72.4474245 Z" id="Path" fill="#FFFFFF"></path>
            <path d="M90.9623808,116.1216 L0.9690624,116.1216 C0.7243776,116.1216 0.4898304,116.024371 0.3170304,115.85111 C0.1442304,115.67831 0.0474624,115.443302 0.0474624,115.198618 L0.0843264,86.418432 C0.0949248,78.202368 6.7825152,71.525376 14.9962752,71.525376 L15.0156288,71.525376 L34.066944,71.5497984 L34.066944,51.7248 C34.066944,51.2160768 34.4798208,50.8032 34.988544,50.8032 L57.0802176,50.8032 C57.5889408,50.8032 58.0018176,51.2160768 58.0018176,51.7248 L58.0018176,71.580672 L77.0282496,71.6050944 C85.2507648,71.6156928 91.931904,78.3138816 91.9213182,86.5363968 L91.8844416,115.201382 C91.8830592,115.709645 91.4706432,116.1216 90.9623808,116.1216 L90.9623808,116.1216 Z M1.891584,114.2784 L90.0417024,114.2784 L90.0776557,86.5340928 C90.0868608,79.3276416 84.2314752,73.4575104 77.0254848,73.4482944 L57.0783744,73.4229504 C56.8244736,73.4229504 56.5820928,73.3174272 56.4083712,73.1331072 C56.2346496,72.9483264 56.1443328,72.700416 56.1590784,72.446976 C56.1655296,72.3354624 56.1627648,72.2253312 56.1604608,72.1133568 C56.1590784,72.036864 56.157696,71.9599104 56.157696,71.882496 L56.157696,52.6464 L35.9096832,52.6464 L35.9069184,72.0769536 C35.9046144,72.1921536 35.9013888,72.3059712 35.90784,72.4207104 C35.9225856,72.6741504 35.831808,72.9220608 35.6576256,73.1063808 C35.4834432,73.29024 35.2415232,73.3943808 34.9880832,73.3943808 C34.9876224,73.3943808 34.9876224,73.3943808 34.9871616,73.3943808 L15.0133248,73.3690368 C15.0077952,73.3690368 15.0018048,73.3690368 14.9962752,73.3690368 C7.7971968,73.3690368 1.9367424,79.2202752 1.9275264,86.4211968 L1.891584,114.2784 Z" id="Shape" fill="#690589"></path>
            <path d="M5.4623232,93.056256 C4.9536,93.056256 4.5407232,92.6433792 4.5407232,92.134656 L4.5407232,86.605056 C4.5407232,86.0963328 4.9536,85.683456 5.4623232,85.683456 C5.9710464,85.683456 6.3839232,86.0963328 6.3839232,86.605056 L6.3839232,92.134656 C6.3839232,92.6433792 5.9710464,93.056256 5.4623232,93.056256 Z" id="Path" fill="#690589"></path>
            <path d="M22.1524992,25.4541312 L20.4493824,25.4541312 C16.0468992,25.4541312 12.4780032,29.0230272 12.4780032,33.4255104 C12.4780032,37.8279936 16.0468992,41.3968896 20.4493824,41.3968896 L22.1524992,41.3968896 L22.1524992,25.4541312 Z" id="Path" fill="#FFBD8E"></path>
            <path d="M71.5631616,25.4541312 L69.8600448,25.4541312 L69.8600448,41.3968896 L71.5631616,41.3968896 C75.9656448,41.3968896 79.5345408,37.8279936 79.5345408,33.4255104 C79.5345408,29.0230272 75.9656448,25.4541312 71.5631616,25.4541312 L71.5631616,25.4541312 Z" id="Path" fill="#E18152"></path>
            <path d="M46.006272,0.9216 C45.08928,0.9216 44.1856512,0.9792 43.2958464,1.0814976 C55.1927808,2.4454656 64.4387328,12.6692352 64.4387328,25.0850304 L64.4387328,41.8134528 C64.4387328,54.2297088 55.1927808,64.4530176 43.2958464,65.8169856 C44.186112,65.9188224 45.08928,65.9768832 46.006272,65.9768832 C59.180544,65.9768832 69.8600448,55.1586816 69.8600448,41.8134528 L69.8600448,25.0850304 C69.8600448,11.7398016 59.180544,0.9216 46.006272,0.9216 Z" id="Path" fill="#E18152"></path>
            <path d="M46.006272,0.9216 C46.923264,0.9216 47.8268928,0.9792 48.7171584,1.0814976 C36.820224,2.4454656 27.5738112,12.6692352 27.5738112,25.0850304 L27.5738112,41.8134528 C27.5738112,54.2297088 36.8197632,64.4530176 48.7171584,65.8169856 C47.8268928,65.9188224 46.9237248,65.9768832 46.006272,65.9768832 C32.832,65.9768832 22.1524992,55.1586816 22.1524992,41.8134528 L22.1524992,25.0850304 C22.1524992,11.7398016 32.832,0.9216 46.006272,0.9216 Z" id="Path" fill="#FFBD8E"></path>
            <g id="Group" transform="translate(11.520000, 0.000000)" fill="#690589">
                <path d="M34.486272,66.898944 C20.8253952,66.898944 9.7108992,55.6457472 9.7108992,41.8139136 L9.7108992,25.0850304 C9.7108992,11.2531968 20.8249344,0 34.486272,0 C48.1476096,0 59.2616448,11.2531968 59.2616448,25.0850304 L59.2616448,41.8134528 C59.2616448,55.6457472 48.1471488,66.898944 34.486272,66.898944 Z M34.486272,1.8432 C21.8414592,1.8432 11.5540992,12.2692608 11.5540992,25.0850304 L11.5540992,41.8134528 C11.5540992,54.6292224 21.8414592,65.0552832 34.486272,65.0552832 C47.1310848,65.0552832 57.4184448,54.6292224 57.4184448,41.8134528 L57.4184448,25.0850304 C57.4184448,12.2692608 47.1310848,1.8432 34.486272,1.8432 Z" id="Shape"></path>
                <path d="M10.6324992,42.3189504 L8.9293824,42.3189504 C4.0255488,42.3189504 0.0364032,38.329344 0.0364032,33.4259712 C0.0364032,28.5225984 4.0255488,24.532992 8.9293824,24.532992 L10.6324992,24.532992 C11.1412224,24.532992 11.5540992,24.9458688 11.5540992,25.454592 L11.5540992,41.3978112 C11.5540992,41.9060736 11.1416832,42.3189504 10.6324992,42.3189504 L10.6324992,42.3189504 Z M8.9293824,26.3757312 C5.0420736,26.3757312 1.8796032,29.5382016 1.8796032,33.4255104 C1.8796032,37.3128192 5.0420736,40.4752896 8.9293824,40.4752896 L9.7108992,40.4752896 L9.7108992,26.3757312 L8.9293824,26.3757312 Z" id="Shape"></path>
                <path d="M60.0431616,42.3189504 L58.3400448,42.3189504 C57.8313216,42.3189504 57.4184448,41.9060736 57.4184448,41.3973504 L57.4184448,25.4541312 C57.4184448,24.945408 57.8313216,24.5325312 58.3400448,24.5325312 L60.0431616,24.5325312 C64.9469952,24.5325312 68.9361408,28.5221376 68.9361408,33.4255104 C68.9361408,38.3288832 64.9465344,42.3189504 60.0431616,42.3189504 Z M59.2616448,40.4757504 L60.0431616,40.4757504 C63.9304704,40.4757504 67.0929408,37.31328 67.0929408,33.4259712 C67.0929408,29.5386624 63.9304704,26.376192 60.0431616,26.376192 L59.2616448,26.376192 L59.2616448,40.4757504 Z" id="Shape"></path>
            </g>
            <path d="M71.4604032,82.1058048 L95.3385984,82.1058048 C97.8835968,82.1058048 99.9465984,84.1688064 99.9465984,86.7138048 L99.9465984,110.592 C99.9465984,113.136998 97.8835968,115.2 95.3385984,115.2 L71.4604032,115.2 C68.9154048,115.2 66.8524032,113.136998 66.8524032,110.592 L66.8524032,86.7138048 C66.8524032,84.1688064 68.9154048,82.1058048 71.4604032,82.1058048 L71.4604032,82.1058048 Z" id="Path" fill="#FCC24C"></path>
            <path d="M95.3381376,82.1058048 L90.7301376,82.1058048 C93.275136,82.1058048 95.3381376,84.1688064 95.3381376,86.7138048 L95.3381376,110.592 C95.3381376,113.136998 93.275136,115.2 90.7301376,115.2 L95.3381376,115.2 C97.883136,115.2 99.9461376,113.136998 99.9461376,110.592 L99.9461376,86.7138048 C99.9461376,84.1688064 97.883136,82.1058048 95.3381376,82.1058048 L95.3381376,82.1058048 Z" id="Path" fill="#DEA42E"></path>
            <path d="M95.3381376,116.1216 L71.4599424,116.1216 C68.4108288,116.1216 65.9303424,113.641114 65.9303424,110.592 L65.9303424,86.7138048 C65.9303424,83.6646912 68.4108288,81.1842048 71.4599424,81.1842048 L95.3381376,81.1842048 C98.3872512,81.1842048 100.867738,83.6646912 100.867738,86.7138048 L100.867738,110.592 C100.867738,113.641114 98.3872512,116.1216 95.3381376,116.1216 Z M71.4604032,83.0274048 C69.4278144,83.0274048 67.7740032,84.681216 67.7740032,86.7138048 L67.7740032,110.592 C67.7740032,112.624589 69.4278144,114.2784 71.4604032,114.2784 L95.3385984,114.2784 C97.3711872,114.2784 99.0249984,112.624589 99.0249984,110.592 L99.0249984,86.7138048 C99.0249984,84.681216 97.3711872,83.0274048 95.3385984,83.0274048 L71.4604032,83.0274048 Z" id="Shape" fill="#690589"></path>
            <polygon id="Path" fill="#7BAC51" points="79.070976 109.132186 85.0434048 103.89289 91.0153728 98.6531328 85.0434048 93.413376 79.070976 88.1736192 79.070976 94.772736 62.4250368 94.772736 62.4250368 102.533069 79.070976 102.533069"></polygon>
            <path d="M79.0705152,110.054246 C78.941952,110.054246 78.8120064,110.027059 78.6903552,109.972224 C78.3608832,109.822925 78.1489152,109.494374 78.1489152,109.132646 L78.1489152,103.45513 L62.424576,103.45513 C61.9158528,103.45513 61.502976,103.042253 61.502976,102.53353 L61.502976,94.772736 C61.502976,94.2640128 61.9158528,93.851136 62.424576,93.851136 L78.1489152,93.851136 L78.1489152,88.1736192 C78.1489152,87.8118912 78.3604224,87.4833408 78.6903552,87.3340416 C79.0198272,87.1847424 79.4068992,87.2418816 79.6783104,87.480576 L91.623168,97.9600896 C91.8226944,98.1351936 91.9369728,98.387712 91.9369728,98.652672 C91.9369728,98.917632 91.8226944,99.1706112 91.623168,99.3452544 L79.6783104,109.824768 C79.5073536,109.97591 79.2903168,110.054246 79.0705152,110.054246 L79.0705152,110.054246 Z M63.3466368,101.611469 L79.070976,101.611469 C79.5796992,101.611469 79.992576,102.024346 79.992576,102.533069 L79.992576,107.097754 L89.6182272,98.6531328 L79.992576,90.2080512 L79.992576,94.772736 C79.992576,95.2814592 79.5796992,95.694336 79.070976,95.694336 L63.3466368,95.694336 L63.3466368,101.611469 Z" id="Shape" fill="#690589"></path>
        </g>
    </g>
</svg>